MSISDN,SIMID,CustomerID,FAN
2349874567,0-0325809u-9324598,1,FAN000008
2349874568,0-0325809u-9324599,2,FAN000008
2349874569,0-0325809u-9324600,3,FAN000009
2349874570,0-0325809u-9324601,4,FAN000010
2349874571,0-0325809u-9324602,5,FAN000004
2349874572,0-0325809u-9324603,6,FAN000006
2349874573,0-0325809u-9324604,7,FAN000006
2349874574,0-0325809u-9324605,8,FAN000006
2349874575,0-0325809u-9324606,9,FAN000006
2349874576,0-0325809u-9324607,10,FAN000006
2349874577,0-0325809u-9324608,11,FAN000011
2349874578,0-0325809u-9324609,12,FAN000011
2349874579,0-0325809u-9324610,13,FAN000011
2349874580,0-0325809u-9324611,14,FAN000011
2349874581,0-0325809u-9324612,15,FAN000011
