MSISDN,SIMID,CustomerID,FAN,Cust_Role_ID
2349874582,0-0325809u-9324613,5,FAN000012,3
2349874583,0-0325809u-9324614,5,FAN000012,3
2349874584,0-0325809u-9324615,5,FAN000012,3
2349874585,0-0325809u-9324616,5,FAN000012,4
2349874586,0-0325809u-9324617,5,FAN000012,4
2349874587,0-0325809u-9324618,5,FAN000012,4
2349874588,0-0325809u-9324619,5,FAN000012,4
