UserRoleID,Role,Description
1,Rep View Only,Rep View Only
2,Rep Retail,Rep Retail
3,Manager Retail,Manager Retail
4,Rep TPR,Rep TPR
5,Manager TPR,Manager TPR
6,TPR Frontline Support Tier 1,TPR Frontline Support Tier 1
7,TPR Frontline Support Tier 2,TPR Frontline Support Tier 2
8,Rep Care,Rep Care
9,Manager Care,Manager Care
10,Rep Telesales,Rep Telesales
11,Manager Telesales,Manager Telesales
12,Rep Credit,Rep Credit
13,Manager Credit,Manager Credit
14,Rep ECR,Rep ECR
15,Manager ECR,Manager ECR
16,Rep Business,Rep Business
17,Manager Business,Manager Business
18,Super User General,Super User General
19,Fraud Specialist,Fraud Specialist
20,Super User Fraud,Super User Fraud
21,Cash Apps Specialist,Cash Apps Specialist
22,Cash Apps Project / System Manager,Cash Apps Project / System Manager
23,Cash Apps Manager,Cash Apps Manager
24,Super User Cash Apps,Super User Cash Apps
25,OffShore CA Rep,OffShore CA Rep
26,OffShore CA Manager,OffShore CA Manager
27,Rep Exclusive Prepaid (Rep EPP),Rep Exclusive Prepaid (Rep EPP)
28,Prepaid Only Rep (PPO),Prepaid Only Rep (PPO)
29,National Retail Rep,National Retail Rep
30,National Retail Rep - Military,National Retail Rep - Military
31,National Retail Prepaid Only Rep,National Retail Prepaid Only Rep
32,Rep WLNP (Offline),Rep WLNP (Offline)
33,Manager WLNP (Offline),Manager WLNP (Offline)
34,Resource Planning,Resource Planning
35,Super-User CD,Super-User CD
